EDI_REDEM_20200724_3
TableName	Actflag	Created	Changed	RedemID	SecID	ISIN	Recdate	RedemDate	RedemCurrency	RedemPrice	MandOptFlag	PartFinal	RedemType	AmountRedeemed	RedemPremium	RedemPercent	PoolFactor	PriceAsPercent	PremiumAsPercent	InDefPay	TenderOpenDate	TenderCloseDate	ExpTime	ExpTimeZone	MatGraceDays	MatGraceDayConvention	TenderOfferor	DutchAuction	DutchMinPrice	DutchMinAmount	DutchMaxPrice	DutchMaxAmount	Notes
REDEM	I	2020/07/24	2020/07/24	3423214	143775	XS0125077122		2020/09/14	GBP	1000	M	F	CALL		105.59			100	10.559									F					<BR>(As on 24/07/2020)<BR><BR>SITUATION:      REDEMPTION <BR>                   <BR>                  SEGRO plc has announced that on 24 July 2020 it gave  <BR>                  notice to the holders of the Notes that it will fully  <BR>                  redeem all of the Notes outstanding on 14 September  <BR>                  2020 in accordance with Conditions 6(C) and 12 of the  <BR>                  Notes. Of the originally issued amount of GBP150  <BR>                  million, GBP39.1 million remains outstanding. The  <BR>                  Notes will be redeemed at the Adjusted Redemption  <BR>                  Price of 110.559 per cent., together with accrued  <BR>                  interest. Following redemption, the Notes will be  <BR>                  cancelled pursuant to Condition 6(C) of the Notes.  <BR>                  Accordingly, the listing of the Notes on the Official  <BR>                  List of the Financial Conduct Authority and the  <BR>                  admission of the Notes to trading on the Regulated  <BR>                  Market of the London Stock Exchange plc will be  <BR>                  cancelled on, or shortly after, 16 September 2020.  <BR>  - <BR>  ISSUE NAME:     SEGRO PLC <BR>  - <BR>  SECURITY:       7% NOTES 14/3/2022 GBP(VAR) <BR>  - <BR>  TERMS:          The Notes will be redeemed in full in accordance with their terms and conditions.  <BR>  - <BR>  TITLES                                                                                                                                                               SETTLEMENT TYPE: <BR>  3-019-252       7% NOTES 14/3/2022 GBP(VAR)  <BR>                                (XS0125077122)                                                                                                                          Crest <BR>  - <BR>  RELATIVE DETAILS AND DATES: Please see below for expected timetable: <BR>  <BR>  14 SEP 20       Redemption Date <BR>  <BR>  16 SEP 20       Admission of the Notes to trading on the Regulated Market of the London Stock Exchange plc will be  <BR>                              cancelled on, or shortly after  <BR>  <BR>  - <BR>  ADDITIONAL INFORMATION: <BR>  <BR>   <BR>  <BR>  - <BR>  SEQUENCING  NUMBER:        81263 <BR>  - <BR>
REDEM	I	2020/07/24	2020/07/24	3423213	1664943	XS0469028319		2020/08/17	GBP	50000	M	F	CALL		4225			100	8.45									F					<BR>(As on 24/07/2020)<BR><BR>SITUATION:      REDEMPTION <BR>                   <BR>                  SEGRO plc has announced that on 24 July 2020 it gave  <BR>                  notice to the holders of the Notes that it will fully  <BR>                  redeem all of the Notes outstanding on 17 August 2020  <BR>                  in accordance with Condition 6.3 of the Notes. Of the  <BR>                  originally issued amount of GBP300 million, GBP79.3  <BR>                  million remains outstanding. The Notes will be  <BR>                  redeemed at the Redemption Amount of 108.450 per  <BR>                  cent., together with accrued interest. Following  <BR>                  redemption, the Notes will be cancelled pursuant to  <BR>                  Condition 6.7 of the Notes. Accordingly, the listing  <BR>                  of the Notes on the Official List of the Financial  <BR>                  Conduct Authority and the admission of the Notes to  <BR>                  trading on the Regulated Market of the London Stock  <BR>                  Exchange plc will be cancelled on, or shortly after,  <BR>                  19 August 2020.  <BR>  - <BR>  ISSUE NAME:     SEGRO PLC <BR>  - <BR>  SECURITY:       6.75% NTS 23/11/21 GBP50000 <BR>  - <BR>  TERMS:          The Notes will be redeemed in full in accordance with their terms and conditions.  <BR>  - <BR>  TITLES                                                                                                                                                                                   SETTLEMENT TYPE: <BR>  B-436-TC7       6.75% NTS 23/11/21 GBP50000  <BR>                              (XS0469028319)                                                                                                                                              Crest <BR>  - <BR>  RELATIVE DETAILS AND DATES: Please see below for expected timetable: <BR>  <BR>  17 AUG 20       Redemption Date <BR>  <BR>  19 AUG 20       Admission of the Notes to trading on the Regulated  Market of the London Stock Exchange plc will be cancelled on, or shortly             <BR>                             after  <BR>  <BR>  - <BR>  ADDITIONAL INFORMATION: <BR>  <BR>   <BR>  <BR>  - <BR>  SEQUENCING  NUMBER:        81264 <BR>
REDEM	I	2020/07/24	2020/07/24	3423225	4564965	XS1262885228		2020/08/03	USD	1000000	M	F	CALL					100										F					
EDI_ENDOFFILE
