EDI_BOND_20200724_3
Tablename	Actflag	Created	Changed	SecID	ISIN	BondType	DebtMarket	DebtCurrency	NominalValue	IssueDate	IssueCurrency	IssuePrice	IssueAmount	IssueAmountDate	OutstandingAmount	OutstandingAmountDate	InterestBasis	InterestRate	InterestAccrualConvention	InterestPaymentFrequency	IntCommencementDate	OddFirstCoupon	FirstCouponDate	OddLastCoupon	LastCouponDate	InterestPayDate1	InterestPayDate2	InterestPayDate3	InterestPayDate4	DomesticTaxRate	NonResidentTaxRate	FRNType	FrnMargin	FrnMinInterestRate	FrnMaxInterestRate	Rounding	Series	Class	OnTap	MaximumTapAmount	TapExpiryDate	Guaranteed	SecuredBy	SecurityCharge	Subordinate	SeniorJunior	WarrantAttached	MaturityStructure	Perpetual	MaturityDate	MaturityExtendible	Callable	Puttable	Denomination1	Denomination2	Denomination3	Denomination4	Denomination5	Denomination6	Denomination7	MinimumDenomination	DenominationMultiple	Strip	StripInterestNumber	Bondsrc	ConventionMethod	FrnInterestAdjFreq	InterestBusDayConv	InterestCurrency	MaturityBusDayConv	MaturityCurrency	TaxRules	VarInterestPaydate	PriceAsPercent	PayOutMode	Cumulative	MatPrice	MatPriceAsPercent	SinkingFund	GovCity	GovState	GovCntry	GovLaw	GovLawNotes	PrivatePlacement	Syndicated	Tier	UppLow	Collateral	CoverPool	PikPay	YieldAtIssue	CoCoTrigger	CoCoAct	CoCoNonViability	Taxability	LatestAppliedINTPYAnlCpnRateDate	LatestAppliedINTPYAnlCpnRate	FirstAnnouncementDate	PerformanceBenchmarkISIN	InterestGraceDays	InterestGraceDayConvention	MatGraceDays	MatGraceDayConvention	ExpMatDate	GreenBond	IndicativeIssAmtDate	IndicativeIssAmt	CoCoCapRatioTriggerPercent	ZCMarker	OriginalCoupon	MaturityBenchmarkCntryCD	MaturityBenchmarkCurenCD	MaturityBenchmarkReference	MaturityBenchmarkFrequency	FRNBenchmarkCntryCD	FRNBenchmarkCurenCD	FRNBenchmarkReference	FRNBenchmarkFrequency	FixedCouponModifier	OptionalMaturityStructure	TaxCreditStripAmount	Notes
BOND	U	2017/02/10	2020/07/24	5044867	XS1563467569	NT		GBP	100000	2017/02/10	GBP	100000	60	2017/02/10	60	2017/02/10	FXD	0.1	AA	SMA	2017/02/10		2017/08/10		2036/08/10	1002	1008										60		F			T	N			S		R		2037/02/10		N	N	100000							100000	1000			PS	ICMA		FBD	GBP		GBP	TEFRA D	F	100												N						0.093																			0.093			IFL						INFLNK			
BOND	U	2020/01/21	2020/07/24	6262049	KE6000007093	NT		KES	1000000	2019/11/08	KES	1000000					FXD	12.25		QTR	2019/11/08		2020/02/08		2024/08/08	0802	0805	0808	0811										F			T	Y			S		R		2024/11/08		Y	N	1000000							1000000	10000			PS			FBD	KES	FBD	KES		F	100			1000000.00000000	100																																													
BOND	U	2020/07/21	2020/07/22	6484549	USU98340AD19	NT		USD		2020/07/24	USD		650	2020/07/24	650	2020/07/24	FXD	6.625		SMA	2020/07/24	L	2021/01/31		2026/01/31	3101	3107												F			F	Y			S		R		2026/07/31															SR				USD		USD		F	100				100																																													
BOND	U	2020/07/24	2020/07/24	6490159	CA62961Z4M81	BD		CAD		2020/07/01	CAD						FXD	0.85	30360	MNT	2020/07/01		2020/08/01		2025/06/01														F			F	Y	MB				R		2025/07/01															SR				CAD		CAD		F					100																						CA135087K940																							
BOND	U	2020/07/24	2020/07/24	6490160	CA62961Z4N64	BD		CAD		2020/07/01	CAD						FXD	0.85	30360	MNT	2020/07/01		2020/08/01		2025/06/01														F			F	Y	MB				R		2025/07/01															SR				CAD		CAD		F					100																						CA135087K940																							
BOND	I	2020/07/24	2020/07/24	6490217	GB00BMY28L29	NT		GBP	500000		GBP						FXD	5.26																					F			F	Y			S		R		2027/07/23				500000											SR				GBP		GBP		F				500000.00000000	100																																													
BOND	I	2020/07/24	2020/07/24	6491390	GB00BHLJ5K92	CD		GBP	1		GBP						FXD	0.1																					F			F						R		2020/12/22				1											SR				GBP		GBP		F				1.00000000	100																																													
EDI_ENDOFFILE
