EDI_CONVT_20200724_3
TableName	Actflag	Created	Changed	ConvtID	SecID	ISIN	FromDate	ToDate	RatioNew	RatioOld	CurenCD	CurPair	Price	MandOptFlag	ResSecID	ResSectyCD	ResISIN	ResIssuername	ResSecurityDesc	Fractions	FXrate	PartFinalFlag	PriceAsPercent	MinPrice	MaxPrice	Notes
EDI_ENDOFFILE
