EDI_MUISS_20200724_3
TableName	Actflag	Created	Changed	IssID	MuIssID	MuniIssuanceName	MuniSeries	RefundingFlag	MuniSeriesIssueAmount	MuniCategory	RepaymentSource	TaxStatus	TaxExemptAmount	TaxExemptBankQualified	Notes
EDI_ENDOFFILE
