EDI_BBEC_20200724_3
tablename	ActFlag	Created	Changed	BbecId	SecId	ISIN	BbeId	Oldexchgcd	Oldcurencd	EffectiveDate	Newexchgcd	Newcurencd	OldbbgexhId	NewbbgexhId	Oldbbgexhtk	Newbbgexhtk	ReleventId	EventType	Notes
EDI_ENDOFFILE
