EDI_MTCHG_20200724_3
TableName	Actflag	Created	Changed	MtChgID	SecID	ISIN	NotificationDate	OldMaturityDate	NewMaturityDate	Reason	EventType	OldMaturityBenchmarkCntryCD	OldMaturityBenchmarkCurenCD	OldMaturityBenchmarkReference	OldMaturityBenchmarkFrequency	NewMaturityBenchmarkCntryCD	NewMaturityBenchmarkCurenCD	NewMaturityBenchmarkReference	NewMaturityBenchmarkFrequency	Notes
MTCHG	I	2017/05/03	2017/05/03	53683	5044867	XS1563467569	2017/02/10	2037/10/02	2037/02/10		CORR			IFL				IFL		
EDI_ENDOFFILE
