EDI_PRCHG_20200724_3
TableName	Actflag	Created	Changed	PrchgID	SecID	ISIN	EffectiveDate	EventType	OldExchgCD	NewExchgCD	Notes
PRCHG	I	2017/02/11	2017/02/13	168466	5044867	XS1563467569	2017/02/10	CORR	XSBND		
PRCHG	I	2017/02/11	2017/02/13	168469	5044867	XS1563467569	2017/02/11	CORR		GBLSE	
PRCHG	I	2020/07/24	2020/07/24	336363	6490217	GB00BMY28L29	2020/07/23	CORR	GBBND		
PRCHG	I	2020/07/24	2020/07/24	336364	6490217	GB00BMY28L29	2020/07/24	CORR		IEISE	
EDI_ENDOFFILE
