EDI_RDNOM_20200724_3
TableName	Actflag	Created	Changed	RdnomID	SecID	ISIN	EffectiveDate	OldDenomination1	OldDenomination2	OldDenomination3	OldDenomination4	OldDenomination5	OldDenomination6	OldDenomination7	OldMinimumDenomination	OldDenominationMultiple	NewDenomination1	NewDenomination2	NewDenomination3	NewDenomination4	NewDenomination5	NewDenomination6	NewDenomination7	NewMinimumDenomination	NewDenominationMultiple	Notes
RDNOM	I	2017/05/03	2017/05/03	76308	5044867	XS1563467569	2017/02/11	1000.000000							100000.000000		100000.000000							100000.000000		
EDI_ENDOFFILE
