EDI_REDMT_20200724_3
TableName	Actflag	Created	Changed	RedmtID	SecID	ISIN	RedemDate	RedemCurrency	RedemPrice	MandOptFlag	PartFinal	RedemType	RedemAmount	RedemPremium	RedemInPercent	PriceAsPercent	PremiumAsPercent	Notes
EDI_ENDOFFILE
