EDI_AGNCY_20200724_3
TableName	Actflag	Created	Changed	AgncyID	RegistrarName	Add1	Add2	Add3	Add4	Add5	Add6	City	CntryCD	Website	Contact1	Tel1	Fax1	Email1	Contact2	Tel2	Fax2	Email2	Depository	State
AGNCY	I	2009/10/09	2009/10/09	5509	Citibank Europe.																		F	
AGNCY	I	2015/04/27	2015/04/27	29838	United Utilities Water Ltd																		F	
AGNCY	I	2014/01/28	2014/01/28	25074	Citibank, N.A. London Branch.,,...	Citigroup Centre	25 Canada Square	Canary Wharf	London E14 5LB														F	
AGNCY	U	2008/10/15	2011/04/06	3624	The Royal Bank of Scotland Plc.,								SG										F	
AGNCY	I	2017/07/08	2017/07/10	36854	Stanbic Bank Kenya Ltd	Stanbic Centre	58 Westlands Road					Nairobi	KE										F	Nairobi
EDI_ENDOFFILE
