EDI_INTPY_20200724_3
TableName	Actflag	Created	Changed	SecID	ISIN	DebtCurrency	NominalValue	ExchgCD	RdID	OptionID	Recdate	Exdate	Paydate	InterestFromDate	InterestToDate	Days	Interest_Currency	Interest_Rate	GrossInterest	NetInterest	DomesticTaxRate	NonResidentTaxRate	RescindInterest	AgencyFees	CouponNo	DefaultOpt	OptElectionDate	AnlCoupRate	InDefPay	NilInt	InterestGraceDays	InterestGraceDayConvention
INTPY	I	2020/07/24	2020/07/24	5044867	XS1563467569	GBP	100000	GBLSE	6685648	1			2020/08/10	2020/02/10	2020/08/09		GBP	0.049726775956	0.000497267759				F			F		0.1		F		
EDI_ENDOFFILE
